,user_name,email,phone_no,role,address
,a,a1@gmail.com,9656845626,newrole,"68, Mohali Stadium Road, Phase 10, Sector 64, Sahibzada Ajit Singh Nagar, Punjab, India"
,b,b@gmail.com,9656845626,hr,"68, Mohali Stadium Road, Phase 10, Sector 64, Sahibzada Ajit Singh Nagar, Punjab, India"
,c,smonu5444@gmail.com,9656845626,hr,"68, Mohali Stadium Road, Phase 10, Sector 64, Sahibzada Ajit Singh Nagar, Punjab, India"
,d,anmolshukla261@gmail.com,9656845626,hr,"68, Mohali Stadium Road, Phase 10, Sector 64, Sahibzada Ajit Singh Nagar, Punjab, India"
